{"key": "Carrot", "desc": "Root vegetable known for its bright orange color and crunchy texture."}
{"key": "Broccoli", "desc": "Nutrient-rich vegetable with green florets and thick stalks."}
{"key": "Spinach", "desc": "Leafy green vegetable packed with vitamins and minerals."}
{"key": "Tomato", "desc": "Juicy fruit often used as a vegetable in cooking, available in various colors."}
{"key": "Cucumber", "desc": "Cool and refreshing vegetable commonly used in salads and sandwiches."}
{"key": "Bell Pepper", "desc": "Sweet and crunchy vegetable available in different colors, such as red, yellow, and green."}
{"key": "Eggplant", "desc": "Purple vegetable with a meaty texture, often used in Mediterranean cuisine."}
{"key": "Zucchini", "desc": "Summer squash with a mild flavor, often grilled or sautéed."}
{"key": "Onion", "desc": "Pungent vegetable used as a base for many dishes and sauces."}
{"key": "Potato", "desc": "Versatile starchy vegetable used in various culinary preparations, such as mashed, fried, or baked."}
{"key": "Lettuce", "desc": "Crisp and leafy green vegetable commonly used as a salad base."}
{"key": "Green Bean", "desc": "Podded vegetable with tender green pods, often steamed or stir-fried."}
{"key": "Mushroom", "desc": "Fungi with a unique earthy flavor, available in various types like button, portobello, and shiitake."}
{"key": "Cabbage", "desc": "Leafy vegetable with tightly packed leaves, available in green, purple, and white varieties."}
{"key": "Asparagus", "desc": "Tender vegetable with spears that are prized for their delicate flavor and texture."}
{"key": "Beetroot", "desc": "Root vegetable with a deep red color and sweet earthy flavor, often used in salads and pickles."}
{"key": "Corn", "desc": "Sweet and juicy vegetable often eaten as a side dish or used in salads and soups."}
{"key": "Radish", "desc": "Crunchy root vegetable with a peppery flavor, commonly used in salads and as a garnish."}
{"key": "Cauliflower", "desc": "Versatile vegetable with a mild flavor, often used as a low-carb alternative to grains."}
{"key": "Peas", "desc": "Sweet and tender legumes often used in soups, stews, and as a side dish."}
{"key": "Celery", "desc": "Crunchy vegetable with a mild flavor, commonly used as a snack or in salads and soups."}
{"key": "Artichoke", "desc": "Thistle-like vegetable prized for its tender heart and nutty flavor, often steamed or grilled."}
{"key": "Pumpkin", "desc": "Orange squash with a sweet flavor, often used in pies, soups, and savory dishes."}
{"key": "Sweet Potato", "desc": "Root vegetable with a sweet flavor and creamy texture, often baked or mashed."}
{"key": "Garlic", "desc": "Pungent bulb used to add flavor to a wide variety of dishes, available in cloves."}
{"key": "Leek", "desc": "Mildly flavored vegetable with a long white stalk and green leaves, often used in soups and stews."}